[
  {
    "id": 1,
    "name": "deepak",
    "familiydetails": {
      "stayin": "delhi",
      "nativeplace": "gonda",
      "father": { "job_status": "RETIRED" }
    }
  },
  {
    "id": 2,
    "name": "naman",
    "familiydetails": {
      "stayin": "delhi",
      "nativeplace": "gonda",
      "father": { "job_status": "RETIRED" }
    }
  }
]
